<?xml version="1.0" encoding="UTF-8"?>
<svg width="24px" height="24px" viewBox="0 0 24 24" version="1.1" xmlns="http://www.w3.org/2000/svg" xmlns:xlink="http://www.w3.org/1999/xlink">
    <title>icon/设备/手机备份 51</title>
    <g id="组件" stroke="none" stroke-width="1" fill="none" fill-rule="evenodd">
        <g id="Apple-TV" transform="translate(-628.000000, -345.000000)">
            <g id="icon" transform="translate(50.000000, 301.000000)" fill="#FF7241" fill-rule="nonzero">
                <g id="icon/层级" transform="translate(578.000000, 44.000000)">
                    <path d="M13,11.75 L13,11 C13,10.4477153 13.4477153,10 14,10 L20,10 C20.5522847,10 21,10.4477153 21,11 L21,14 C21,14.5522847 20.5522847,15 20,15 L14,15 C13.4477153,15 13,14.5522847 13,14 L13,13.25 L8.75,13.25 L8.75,17.388 L13,17.3881505 L13,17 C13,16.4477153 13.4477153,16 14,16 L20,16 C20.5522847,16 21,16.4477153 21,17 L21,20 C21,20.5522847 20.5522847,21 20,21 L14,21 C13.4477153,21 13,20.5522847 13,20 L13,18.8881505 L8,18.8881505 C7.62030423,18.8881505 7.30650904,18.6059966 7.25684662,18.2399211 L7.25,18.1381505 L7.25,9 L4,9 C3.44771525,9 3,8.55228475 3,8 L3,4 C3,3.44771525 3.44771525,3 4,3 L12,3 C12.5522847,3 13,3.44771525 13,4 L13,8 C13,8.55228475 12.5522847,9 12,9 L8.75,9 L8.75,11.75 L13,11.75 Z M19.5,17.5 L14.5,17.5 L14.5,19.5 L19.5,19.5 L19.5,17.5 Z M19.5,11.5 L14.5,11.5 L14.5,13.5 L19.5,13.5 L19.5,11.5 Z M11.5,4.5 L4.5,4.5 L4.5,7.5 L11.5,7.5 L11.5,4.5 Z" id="形状结合"></path>
                </g>
            </g>
            <g id="切图" transform="translate(50.000000, 301.000000)">
                <g id="编组-2备份" transform="translate(0.000000, 44.000000)"></g>
            </g>
        </g>
    </g>
</svg>