<?xml version="1.0" encoding="UTF-8"?>
<svg width="14px" height="14px" viewBox="0 0 14 14" version="1.1" xmlns="http://www.w3.org/2000/svg" xmlns:xlink="http://www.w3.org/1999/xlink">
    <title>icon/打勾</title>
    <g id="web" stroke="none" stroke-width="1" fill="none" fill-rule="evenodd">
        <g id="3" transform="translate(-951.000000, -622.000000)" fill="#00AF92" fill-rule="nonzero">
            <g id="list3" transform="translate(931.000000, 0.000000)">
                <g id="表单" transform="translate(20.000000, 134.000000)">
                    <g id="编组-10" transform="translate(0.000000, 465.000000)">
                        <g id="路径-3" transform="translate(0.000000, 23.000000)">
                            <path d="M11.4999975,2.53150201 C11.6281164,2.32664108 11.8980498,2.26442934 12.1029107,2.39254818 C12.2891479,2.50901986 12.3574933,2.74269368 12.2721229,2.9381323 L12.2418646,2.99546139 L6.18902,11.5072406 C6.04278564,11.7410681 5.72428692,11.7793792 5.52653096,11.6016202 L5.4831717,11.5567539 L1.76222883,7.71298386 C1.60676452,7.52801552 1.63068225,7.25204034 1.81565058,7.09657602 C1.98380361,6.95524483 2.22716892,6.96216326 2.3868301,7.10355863 L2.43205841,7.14999777 L5.76566667,10.5326667 L11.4999975,2.53150201 Z"></path>
                        </g>
                    </g>
                </g>
            </g>
        </g>
    </g>
</svg>