<?xml version="1.0" encoding="UTF-8"?>
<svg width="14px" height="14px" viewBox="0 0 14 14" version="1.1" xmlns="http://www.w3.org/2000/svg" xmlns:xlink="http://www.w3.org/1999/xlink">
    <title>icon/打勾</title>
    <g id="web" stroke="none" stroke-width="1" fill="none" fill-rule="evenodd">
        <g id="3" transform="translate(-951.000000, -642.000000)">
            <g id="list3" transform="translate(931.000000, 0.000000)">
                <g id="表单" transform="translate(20.000000, 134.000000)">
                    <g id="编组-10" transform="translate(0.000000, 465.000000)">
                        <g id="icon/关闭" transform="translate(0.000000, 43.000000)">
                            <rect id="矩形" x="0" y="0" width="14" height="14"></rect>
                            <path d="M11.0881471,3.04480745 C11.2434692,3.20012961 11.2575894,3.44318343 11.1305077,3.6144568 L11.0881471,3.66352588 L7.6851957,7.06647727 L11.0881471,10.4694287 C11.2590015,10.640283 11.2590015,10.9172927 11.0881471,11.0881471 C10.9315306,11.2447636 10.6857141,11.257815 10.514231,11.1273012 L10.4694287,11.0881471 L7.06647727,7.6851957 L3.66352588,11.0881471 L3.61872359,11.1273012 C3.44724042,11.257815 3.20142396,11.2447636 3.04480745,11.0881471 C2.88948529,10.9328249 2.87536509,10.6897711 3.00244686,10.5184977 L3.04480745,10.4694287 L6.44775883,7.06647727 L3.04480745,3.66352588 C2.87395307,3.49267151 2.87395307,3.21566183 3.04480745,3.04480745 C3.20142396,2.88819094 3.44724042,2.87513956 3.61872359,3.00565332 L3.66352588,3.04480745 L7.06647727,6.44775883 L10.4694287,3.04480745 L10.514231,3.00565332 C10.6857141,2.87513956 10.9315306,2.88819094 11.0881471,3.04480745 Z" id="路径" fill="#EB4E5C" fill-rule="nonzero"></path>
                        </g>
                    </g>
                </g>
            </g>
        </g>
    </g>
</svg>