<?xml version="1.0" encoding="UTF-8"?>
<svg width="24px" height="24px" viewBox="0 0 24 24" version="1.1" xmlns="http://www.w3.org/2000/svg" xmlns:xlink="http://www.w3.org/1999/xlink">
    <title>icon/设备/手机备份 5</title>
    <g id="icon" stroke="none" stroke-width="1" fill="none" fill-rule="evenodd">
        <g id="Apple-TV" transform="translate(-730.000000, -433.000000)">
            <g id="icon" transform="translate(50.000000, 301.000000)" fill="#0075FF" fill-rule="nonzero">
                <g id="icon/性别男" transform="translate(680.000000, 132.000000)">
                    <path d="M20.6395926,3.62782698 C20.5066822,3.49833728 20.3384263,3.41107282 20.1560161,3.37702434 L15.4776485,3.00029652 C14.9716718,2.98772152 14.5458974,3.37660508 14.5126896,3.88164744 C14.4794818,4.3866898 14.8506704,4.82797572 15.3539374,4.88176108 L17.8168323,5.13254394 L14.6229388,8.39390732 C13.7288148,7.63386594 12.6800511,7.07743305 11.5493957,6.76320586 C9.72464576,6.35913266 7.81407539,6.70257431 6.24428526,7.71684561 C4.67449512,8.73111692 3.57621898,10.3317483 3.19468486,12.1613436 C2.2861168,16.0085392 4.6432951,19.8703011 8.48034001,20.820825 C10.3209224,21.2438975 12.2542957,20.9106969 13.8470756,19.8959134 C15.4398556,18.8811298 16.5588149,17.2696445 16.9531279,15.4226872 C17.3870356,13.5265916 17.0340385,11.5355917 15.9747268,9.90423853 L18.9211982,6.76771307 L18.797487,9.02592521 C18.7745612,9.53699259 19.154489,9.97712213 19.6634253,10.0290764 C20.1723708,10.0461725 20.6041216,9.65859642 20.6418462,9.15076313 L21.0129597,4.38468279 C21.0209066,4.0880367 20.8820613,3.80655197 20.6418462,3.63231442 L20.6395926,3.62782698 Z M14.870361,14.9166143 C14.582562,16.2212969 13.7820078,17.3553522 12.6489922,18.0633782 C11.5159767,18.7714042 10.1457657,18.9938687 8.84694637,18.6806702 C6.13675309,17.9940941 4.48973855,15.2477391 5.16048172,12.533584 C5.44716811,11.2288053 6.24720449,10.0944438 7.38007191,9.38645518 C8.51293932,8.67846651 9.88318289,8.45650544 11.181623,8.7706549 C13.8346903,9.53234316 15.4460346,12.2170708 14.870361,14.9166143 L14.870361,14.9166143 Z" id="形状"></path>
                </g>
            </g>
            <g id="切图" transform="translate(50.000000, 301.000000)">
                <g id="编组-2备份-3" transform="translate(0.000000, 132.000000)"></g>
            </g>
        </g>
    </g>
</svg>