<?xml version="1.0" encoding="UTF-8"?>
<svg width="24px" height="24px" viewBox="0 0 24 24" version="1.1" xmlns="http://www.w3.org/2000/svg" xmlns:xlink="http://www.w3.org/1999/xlink">
    <title>icon</title>
    <g id="icon" stroke="none" stroke-width="1" fill="none" fill-rule="evenodd">
        <g id="Apple-TV" transform="translate(-526.000000, -433.000000)">
            <g id="icon" transform="translate(50.000000, 301.000000)">
                <g id="test" transform="translate(476.000000, 132.000000)">
                    <g id="test-14" transform="translate(2.517647, 3.517647)">
                        <path d="M9.48235294,0.482352941 C14.4529157,0.482352941 18.4823529,3.61635969 18.4823529,7.48235294 C18.4823529,11.1465136 14.8626643,14.1531225 10.2527154,14.4570687 C10.2029283,14.4952267 10.1453833,14.5257118 10.0818298,14.5462895 L4.71911596,16.4794673 C4.41477534,16.5780082 4.81800222,14.1220102 4.71911596,13.8187324 L4.47951734,13.3021157 C2.06913691,12.0461764 0.482352941,9.90839203 0.482352941,7.48235294 C0.482352941,3.61635969 4.51179019,0.482352941 9.48235294,0.482352941 Z" id="合并形状" stroke="#ff7241" stroke-width="1.5" stroke-linejoin="round"></path>
                        <circle id="tests" fill="#ff7241" cx="5.43697479" cy="7.85714286" r="1.21008403"></circle>
                        <circle id="tests-copy-2" fill="#ff7241" cx="9.66386555" cy="7.85714286" r="1.21008403"></circle>
                        <circle id="tests-copy-3" fill="#ff7241" cx="13.8907563" cy="7.85714286" r="1.21008403"></circle>
                    </g>
                </g>
            </g>
            <g id="test" transform="translate(50.000000, 301.000000)">
                <g id="test-3" transform="translate(0.000000, 132.000000)"></g>
            </g>
        </g>
    </g>
</svg>